module go/rest/api

go 1.22.3

require (
	github.com/jmoiron/sqlx v1.4.0
	github.com/labstack/echo/v4 v4.12.0
	github.com/lib/pq v1.10.9
)

require go.uber.org/multierr v1.10.0 // indirect

require (
	github.com/google/uuid v1.6.0 // indirect
	github.com/labstack/gommon v0.4.2 // indirect
	github.com/mattn/go-colorable v0.1.13 // indirect
	github.com/mattn/go-isatty v0.0.20 // indirect
	github.com/valyala/bytebufferpool v1.0.0 // indirect
	github.com/valyala/fasttemplate v1.2.2 // indirect
	go.uber.org/zap v1.27.0
	golang.org/x/crypto v0.22.0 // indirect
	golang.org/x/net v0.24.0 // indirect
	golang.org/x/sys v0.19.0 // indirect
	golang.org/x/text v0.14.0 // indirect
)
