[
   {
      "id":"ldn",
      "name":"London (United Kingdom)",
      "hasBeach":false,
      "hasMountain":false,
      "tempC":[5,7,9,11,14,16,19,19,17,13,10,7]
   },
   {
      "id":"bcn",
      "name":"Barcelona (Spain)",
      "hasBeach":true,
      "hasMountain":false,
      "tempC":[10,10,12,13,16,20,23,24,22,18,13,11]
   },
   {
      "id":"nyc",
      "name":"New York (United States of America)",
      "hasBeach":true,
      "hasMountain":false,
      "tempC":[2,2,4,11,16,22,25,24,20,14,9,9]
   },
   {
      "id":"asp",
      "name":"Aspen (United States of America)",
      "hasBeach":false,
      "hasMountain":true,
      "tempC":[-10,-9,-5,-2,2,4,5,7,4,-1,-5,-10]
   },
   {
      "id":"ant",
      "name":"St.Anton (Austria)",
      "hasBeach":false,
      "hasMountain":true,
      "tempC":[-3,-3,2,6,10,14,15,15,12,8,2,-3]
   },
   {
      "id":"cun",
      "name":"Cancun (Mexico)",
      "hasBeach":true,
      "hasMountain":false,
      "tempC":[23,23,25,26,27,28,28,28,28,27,25,24]
   },
   {
      "id":"ber",
      "name":"Berlin (Germany)",
      "hasBeach":false,
      "hasMountain":false,
      "tempC":[-1,1,4,9,14,17,18,18,15,10,5,1]
   },
   {
      "id":"lis",
      "name":"Lisbon (Portugal)",
      "hasBeach":true,
      "hasMountain":false,
      "tempC":[11,12,14,15,18,21,24,23,23,19,14,12]
   },
   {
      "id":"zer",
      "name":"Zermatt (Switzerland)",
      "hasBeach":false,
      "hasMountain":true,
      "tempC":[-5,-5,0,4,9,13,14,14,10,4,0,-2]
   },
   {
      "id":"nsk",
      "name":"Niseko (Japan)",
      "country":"Japan",
      "hasBeach":false,
      "hasMountain":true,
      "tempC":[-5,-6,-1,6,12,16,20,22,18,11,4,-3]
   },
   {
      "id":"gcn",
      "name":"Gran Canaria (Spain)",
      "hasBeach":true,
      "hasMountain":false,
      "tempC":[18,18,19,19,20,22,23,24,24,23,21,19]
   }
]